time, latitude, longitude, magnitude, place
2004-12-26T00:58:53+11:00, 3.316, 95.854, 9.1, OFF THE WEST COAST OF NORTHERN SUMATRA
2011-03-11T05:46:24+11:00, 38.297, 142.372, 9.0, NEAR THE EAST COAST OF HONSHU, JAPAN
2010-02-27T06:34:14+11:00, -35.909, -72.733, 8.8, OFFSHORE BIO-BIO, CHILE
2012-04-11T08:38:36+11:00, 2.311, 93.063, 8.7, OFF THE WEST COAST OF NORTHERN SUMATRA
2005-03-28T16:09:36+11:00, 2.074, 97.013, 8.6, NORTHERN SUMATRA, INDONESIA
2007-09-12T11:10:26+11:00, 4.520, 101.374, 8.5, SOUTHERN SUMATRA, INDONESIA
2007-06-23T20:33:14+11:00, -16.26, -73.64, 8.4, NEAR COAST OF PERU
2003-09-25T19:50:06+11:00, 41.775, 143.904, 8.3, HOKKAIDO, JAPAN REGI
2009-09-29T17:48:10+11:00, -15.509, -172.034, 8.1, SAMOA ISLANDS REGION
2007-08-15T23:40:57+11:00, -13.354, 76.509, 8.0, NEAR THE COAST OF CENTRAL PERU
2008-05-12T06:28:01+11:00, 30.986, 103.364, 7.9, EASTERN SICHUAN, CHINA
2009-07-15T09:22:29+11:00, -45.750, 166.577, 7.8, OFF WEST COAST OF THE SOUTH ISLAND, N.Z.
2008-07-05T02:12:04+11:00, 53.888, 152.869, 7.7, SEA OF OKHOTSK
2010-07-23T22:51:12+11:00, 6.470, 123.532, 7.6, MORO GULF, MINDANAO, PHILIPPINES
2009-08-10T19:55:39+11:00, 14.013, 92.923, 7.5, ANDAMAN ISLANDS, INDIA REGION
2007-11-29T19:00:19+11:00, 14.943, -61.244, 7.4, MARTINIQUE REGION, WINDWARD ISLANDS
2010-04-04T22:40:42+11:00, 32.259, -115.287, 7.2, BAJA CALIFORNIA, MEXICO
2008-04-12T00:30:11+11:00, -55.681, 158.527, 7.1, MACQUARIE ISLAND REGION
2010-01-12T21:53:10+11:00, 18.443, -72.571, 7.0, HAITI REGION
2009-08-03T17:59:56+11:00, 29.066, -112.871, 6.9, GULF OF CALIFORNIA
2008-02-23T15:57:20+11:00, -57.072, -23.398, 6.8, SOUTH SANDWICH ISLANDS REGION
2005-06-17T06:21:41+11:00, 40.758, -126.595, 6.7, OFF THE COAST OF NORTHERN CALIFORNIA
2007-12-20T07:55:19+11:00, -38.842, 177.930, 6.6, NORTH ISLAND OF NEW ZEALAND
2009-11-13T03:05:57+11:00, -19.385, -70.266, 6.5, OFFSHORE TARAPACA, CHILE
2009-01-18T14:11:49+11:00, -30.090, -177.999, 6.4, KERMADEC ISLANDS, NEW ZEALAND
2009-09-12T20:06:24+11:00, 10.720, -67.951,  6.3, OFFSHORE CARABOBO, VENEZUELA
2007-09-06T17:51:26+11:00, 24.313, 122.255, 6.2, TAIWAN REGION
2011-01-21T23:51:42+11:00, -43.583, 172.680, 6.1, SOUTH ISLAND OF NEW ZEALAND
2004-09-28T17:15:24+11:00, 35.815, -120.374, 6.0, PARKFIELD, CENTRAL CALIFORNIA
2011-08-23T17:51:04+11:00, 37.936, -77.933, 5.8, VIRGINIA, USA
2008-07-29T18:42:15+11:00, 33.953, -117.761, 5.5, GREATER LOS ANGELES AREA, CALIFORNIA













